<svg width="62" height="55" viewBox="0 0 62 55" fill="none" xmlns="http://www.w3.org/2000/svg">
<g clip-path="url(#clip0_58_918)">
<path d="M7.66601 15.7182L0 23.5774H7.66601H15.3365L7.66601 15.7182Z" fill="#9D75A6"/>
<path d="M15.3501 7.86375L8.04976 15.3297L7.67504 15.7275L15.3501 23.5913V15.7275V7.86375Z" fill="#AD8BB5"/>
<path d="M15.3365 7.86375H7.66601H0L7.66601 15.7183L15.3365 7.86375Z" fill="#572568"/>
<path d="M0 7.86375V15.7183V23.5774L7.66601 15.7183L0 7.86375Z" fill="#7D4688"/>
<path d="M23.0026 15.7182L19.1695 19.6455L15.3365 23.5727H15.3411H23.0071H30.6731L23.0026 15.7182Z" fill="#FDC63B"/>
<path d="M23.0071 15.7183L30.6731 23.5728V15.7183V7.86375L23.0071 15.7183Z" fill="#FBB714"/>
<path d="M30.6731 7.86375H23.0026H15.3365L23.0026 15.7183L30.6731 7.86375Z" fill="#F29107"/>
<path d="M15.3365 7.86375V15.7183V23.5774L19.1695 19.6501L23.0026 15.7183L15.3365 7.86375Z" fill="#F6A64C"/>
<path d="M23.0025 15.7229L19.1695 19.6501L23.0025 15.7229Z" fill="#FFF4D8"/>
<path d="M23.0025 15.7229L19.1695 19.6501L23.0025 15.7229Z" fill="#F6A64C"/>
<path d="M53.6756 15.7182L52.3934 17.032L46.0141 23.5681V23.5727H46.0096V23.5774H53.6711H61.3416L53.6756 15.7182Z" fill="#FDC63B"/>
<path d="M53.6756 15.7183L61.3416 23.5728V15.7183V7.86375L53.6756 15.7183Z" fill="#FBB714"/>
<path d="M61.3416 7.86375H53.6756H46.0096L53.6756 15.7183L61.3416 7.86375Z" fill="#F29107"/>
<path d="M46.0141 7.86375V15.7275V23.5913L52.3934 17.0551L53.6711 15.7275L46.0141 7.86375Z" fill="#F6A64C"/>
<path d="M53.6711 15.7182L52.3934 17.032L53.6756 15.7182H53.6711Z" fill="#FFF4D8"/>
<path d="M53.6711 15.7182L52.3934 17.032L53.6756 15.7182H53.6711Z" fill="#F6A64C"/>
<path d="M30.6731 55V47.1455V39.2864L23.0071 47.1455L30.6731 55Z" fill="#FBB714"/>
<path d="M23.0071 47.1455L30.6731 39.2864H23.0071H15.3365L23.0071 47.1455Z" fill="#F29107"/>
<path d="M7.67053 31.4319L15.3365 39.2864V31.4319V23.5774L7.67053 31.4319H7.66602H7.67053Z" fill="#FBB714"/>
<path d="M15.3365 23.5774H7.66601H0L7.66601 31.4319L15.3365 23.5774Z" fill="#F29107"/>
<path d="M7.67053 0L0.0045166 7.8545H7.67053H15.3365L7.67053 0Z" fill="#FDC63B"/>
<path d="M23.0071 0L15.341 7.8545H23.0071H30.6731L23.0071 0Z" fill="#9D75A6"/>
<path d="M23.0071 0H15.3365H7.67052L15.3365 7.8545L23.0071 0Z" fill="#F29107"/>
<path d="M38.3436 0L30.6776 7.8545H38.3436H46.0096L38.3436 0Z" fill="#FDC63B"/>
<path d="M53.6801 0L46.0141 7.8545H53.6801H61.3462L53.6801 0Z" fill="#9D75A6"/>
<path d="M53.6756 0H46.0096H38.3391L46.0096 7.8545L53.6756 0Z" fill="#F29107"/>
<path d="M38.3436 15.7182L36.8086 17.291L30.6776 23.5774H38.3436H46.0051V23.5727H46.0096H46.0051L38.3436 15.7182Z" fill="#9D75A6"/>
<path d="M46.0141 7.89151L38.3391 15.7553L46.0141 23.619V7.86375" fill="#AD8BB5"/>
<path d="M46.014 23.5681L46.0096 23.5727H46.014V23.5681Z" fill="#FFE39D"/>
<path d="M46.014 23.5681L46.0096 23.5727H46.014V23.5681Z" fill="#AD8BB5"/>
<path d="M46.0096 7.86375V7.86838V15.7183V23.5681V23.5728L46.0141 23.5681V15.7183V7.86838L46.0096 7.86375Z" fill="#FCD3A5"/>
<path d="M46.0096 7.86375V7.86838V15.7183V23.5681V23.5728L46.0141 23.5681V15.7183V7.86838L46.0096 7.86375Z" fill="#AD8BB5"/>
<path d="M46.0141 7.86375H38.3436H30.6776L38.3436 15.7183L46.0141 7.86375Z" fill="#572568"/>
<path d="M30.6776 7.86375V15.7183V23.5774L36.8086 17.291L38.3436 15.7183L30.6776 7.86375Z" fill="#7D4688"/>
<path d="M38.3436 15.7229L36.8086 17.291L38.3436 15.7229Z" fill="#692A76"/>
<path d="M23.0251 31.455L15.3501 39.3187H30.7002L23.0251 31.455Z" fill="#9D75A6"/>
<path d="M30.6731 23.5912L23.0251 31.455L30.7002 39.3187V31.455L30.6731 23.5912Z" fill="#AD8BB5"/>
<path d="M30.6731 23.5774H23.0071H15.341L23.0071 31.4319L30.6731 23.5774Z" fill="#572568"/>
<path d="M15.341 23.5774V31.4319V39.2864L23.0071 31.4319L15.341 23.5774Z" fill="#7D4688"/>
<path d="M38.3346 31.4272L30.6595 39.291H46.0051L38.3301 31.4272" fill="#FDC63B"/>
<path d="M38.3436 31.4319L46.0141 39.2864V31.4319V23.5774L38.3436 31.4319Z" fill="#FBB714"/>
<path d="M46.0096 23.5774H38.3436H30.6776L38.3436 31.4319L46.0096 23.5774Z" fill="#F29107"/>
<path d="M30.6776 23.5774V31.4319V39.2864V39.2817L38.3436 31.4319L30.6776 23.5774Z" fill="#F6A64C"/>
<path d="M61.3416 23.5774H53.6711H46.0051L53.6711 31.4319L61.3416 23.5774Z" fill="#572568"/>
<path d="M46.0051 23.5774V39.2771L53.6801 31.4134L46.0051 23.5496" fill="#7D4688"/>
<path d="M46.0095 23.5774H46.0051V23.5819H46.0095V23.5774Z" fill="#7D4688"/>
<path d="M46.0095 23.5774H46.0051V23.5819H46.0095V23.5774Z" fill="#FCE9CC"/>
<path d="M46.0051 23.5774H46.0096V23.582L53.6711 31.4319L46.0051 23.5774Z" fill="#572568"/>
<path d="M46.0141 39.2864H38.3436H30.6776L38.3436 47.1455L46.0141 39.2864Z" fill="#572568"/>
<path d="M30.7002 39.291V55.0185L38.3752 47.1547L30.7002 39.291Z" fill="#7D4688"/>
<path d="M30.6811 39.2834L30.6779 39.2867L30.6811 39.2899L30.6842 39.2867L30.6811 39.2834Z" fill="#FFF4D8"/>
<path d="M30.6811 39.2834L30.6779 39.2867L30.6811 39.2899L30.6842 39.2867L30.6811 39.2834Z" fill="#7D4688"/>
<path d="M30.6776 39.2864V39.291H30.6821L38.3436 47.1455L30.6776 39.2864Z" fill="#572568"/>
</g>
<defs>
<clipPath id="clip0_58_918">
<rect width="61.3462" height="55" fill="white"/>
</clipPath>
</defs>
</svg>
