<svg width="23" height="21" viewBox="0 0 23 21" fill="none" xmlns="http://www.w3.org/2000/svg">
<path d="M20.2457 6.94941L4.66648 0.263707C4.077 0.0101437 3.42997 -0.0625456 2.80198 0.054244C2.174 0.171034 1.59135 0.472412 1.12303 0.922699C0.654702 1.37299 0.320307 1.95333 0.15943 2.59502C-0.00144738 3.23671 0.0179303 3.91288 0.215268 4.54348L1.92898 10.1535L0.170756 15.7634C-0.0319167 16.3965 -0.0546835 17.077 0.105184 17.7232C0.265051 18.3694 0.600772 18.9541 1.07213 19.407C1.6782 19.9912 2.47124 20.3209 3.29773 20.3324C3.73699 20.3321 4.17187 20.2417 4.57745 20.0663L20.2123 13.3806C20.8212 13.1174 21.3415 12.6726 21.7075 12.1024C22.0735 11.5322 22.2688 10.8621 22.2688 10.1766C22.2688 9.49111 22.0735 8.82099 21.7075 8.25077C21.3415 7.68054 20.8212 7.23576 20.2123 6.97254L20.2457 6.94941ZM3.76511 17.9033C3.56881 17.9875 3.35344 18.0115 3.14443 17.9726C2.93542 17.9336 2.74149 17.8333 2.58554 17.6835C2.43863 17.5376 2.33297 17.3527 2.28 17.1488C2.22704 16.9449 2.22879 16.7298 2.28508 16.5268L3.90977 11.3101H19.1885L3.76511 17.9033ZM3.90977 8.99676L2.2517 3.82633C2.19541 3.62339 2.19365 3.4083 2.24662 3.20439C2.29958 3.00049 2.40525 2.81555 2.55215 2.66963C2.65688 2.55544 2.78296 2.46472 2.92266 2.40306C3.06237 2.34139 3.21273 2.31008 3.3645 2.31106C3.51367 2.31136 3.66126 2.34282 3.79849 2.40359L19.1885 8.99676H3.90977Z" fill="white"/>
</svg>
